{
  "endpoints": [
    {
      "name": "Create User",
      "event": [
        {
          "listen": "prerequest",
          "script": {
            "id": "cd7ae30e-7761-4c5c-b2b0-7a1f685a0cd1",
            "type": "text/javascript",
            "exec": [
              "let user = {",
              "    email          :  \"{{email}}\",",
              "    password       :  \"{{password}}\",",
              "    firstName      : \"{{firstName}}\",",
              "    lastName       : \"{{lastName}}\",",
              "};",
              "",
              "var utils = eval(pm.globals.get('loadUtils'));",
              "utils.appendObject(user, \"fee\", \"vehicleFee\");",
              "utils.appendObject(user, \"languages\", \"vehicleLanguages\");",
              "utils.appendObject(user, \"serviceConfiguration\", \"VehicleServiceConfig\");",
              "pm.environment.set('user', JSON.stringify(user));"
            ]
          }
        },
        {
          "listen": "test",
          "script": {
            "type": "text/javascript",
            "exec": [
              "var jsonData = JSON.parse(responseBody);",
              "pm.environment.set(\"verifyPhoneToken\", jsonData.response.token)"
            ]
          }
        }
      ],
      "request": {
        "method": "POST",
        "description": "Endpoint to create a new user",
        "header": [],
        "body": {
          "mode": "raw",
          "raw": "{{user}}"
        },
        "body": {
          "mode": "formdata",
          "formdata": [
            {
              "key": "email",
              "value": "{{email}}",
              "description": "",
              "type": "text"
            },
            {
              "key": "password",
              "value": "{{password}}",
              "description": "",
              "type": "text"
            },
            {
              "key": "firstName",
              "value": "{{firstName}}",
              "description": "",
              "type": "text"
            },
            {
              "key": "lastName",
              "value": "{{lastName}}",
              "description": "",
              "type": "text"
            },
            {
              "key": "others[birthday]",
              "value": "{{others[birthday]}}",
              "description": "",
              "type": "text"
            },
            {
              "key": "others[gender]",
              "value": "{{others[gender]}}",
              "description": "",
              "type": "text"
            },
            {
              "key": "others[country]",
              "value": "{{others[country]}}",
              "description": "",
              "type": "text"
            },
            {
              "key": "phone",
              "value": "{{phone}}",
              "description": "",
              "type": "text"
            }
          ]
        },
        "url": {
          "raw": "{{url}}/users",
          "host": [
            "{{url}}"
          ],
          "path": [
            "users"
          ]
        }
      },
      "response": []
    },
    {
      "name": "Verify User email",
      "request": {
        "method": "GET",
        "description": "Endpoint to verify the user account, used in the email template",
        "header": [],
        "body": {},
        "url": {
          "raw": "{{url}}/users/verify/{{verifyToken}}",
          "host": [
            "{{url}}"
          ],
          "path": [
            "users",
            "verify",
            "{{verifyToken}}"
          ]
        }
      },
      "response": []
    },
    {
      "name": "Login with Fb",
      "event": [
        {
          "listen": "test",
          "script": {
            "type": "text/javascript",
            "exec": [
              "var jsonData = JSON.parse(responseBody);",
              "postman.setEnvironmentVariable(\"token\", jsonData.response.token);",
              "postman.setEnvironmentVariable(\"refresh\", jsonData.response.refresh);"
            ]
          }
        }
      ],
      "request": {
        "method": "POST",
        "description": "Endpoint to create a new user/login with FB",
        "header": [],
        "body": {
          "mode": "formdata",
          "formdata": [
            {
              "key": "fbUserId",
              "value": "{{facebookId}}",
              "description": "",
              "type": "text"
            },
            {
              "key": "fbToken",
              "value": "{{facebookToken}}",
              "description": "",
              "type": "text"
            },
            {
              "key": "phone",
              "value": "{{phone}}",
              "description": "",
              "type": "text"
            }
          ]
        },
        "url": {
          "raw": "{{url}}/users/fb",
          "host": [
            "{{url}}"
          ],
          "path": [
            "users",
            "fb"
          ]
        }
      },
      "response": []
    },
    {
      "name": "Get User Profile",
      "request": {
        "method": "GET",
        "description": "Endpoint to get the user data",
        "header": [
          {
            "key": "Authorization",
            "value": "Bearer {{token}}"
          }
        ],
        "body": {},
        "url": {
          "raw": "{{url}}/users/me",
          "host": [
            "{{url}}"
          ],
          "path": [
            "users",
            "me"
          ]
        }
      },
      "response": []
    },
    {
      "name": "Get User Rides",
      "request": {
        "method": "GET",
        "description": "Endpoint to get the User rides",
        "header": [
          {
            "key": "Authorization",
            "value": "Bearer {{token}}"
          },
          {
            "key": "Content-Type",
            "value": "application/json"
          }
        ],
        "body": {},
        "url": {
          "raw": "{{url}}/users/me/rides",
          "host": [
            "{{url}}"
          ],
          "path": [
            "users",
            "me",
            "rides"
          ]
        }
      },
      "response": []
    },
    {
      "name": "Update User",
      "request": {
        "method": "PATCH",
        "description": "Endpoint to update the user data",
        "header": [
          {
            "key": "Authorization",
            "value": "Bearer {{token}}"
          },
          {
            "key": "Content-Type",
            "value": "application/json"
          }
        ],
        "body": {
          "mode": "formdata",
          "formdata": [
            {
              "key": "firstName",
              "value": "{{newFirstName}}",
              "description": "",
              "type": "text"
            }
          ]
        },
        "url": {
          "raw": "{{url}}/users/me",
          "host": [
            "{{url}}"
          ],
          "path": [
            "users",
            "me"
          ]
        }
      },
      "response": []
    },
    {
      "name": "Forgot Password with email/phone",
      "request": {
        "method": "GET",
        "description": "Endpoint to request a new password you can use email/phone",
        "header": [],
        "body": {},
        "url": {
          "raw": "{{url}}/users/password/{{email}}",
          "host": [
            "{{url}}"
          ],
          "path": [
            "users",
            "password",
            "{{email}}"
          ]
        }
      },
      "response": []
    },
    {
      "name": "Resend verification email/phone",
      "event": [
        {
          "listen": "test",
          "script": {
            "type": "text/javascript",
            "exec": [
              "var jsonData = JSON.parse(responseBody);",
              "pm.environment.set(\"verifyPhoneToken\", jsonData.response.token)"
            ]
          }
        }
      ],
      "request": {
        "method": "GET",
        "description": "Endpoint to resend verification of email or phone number",
        "header": [],
        "body": {},
        "url": {
          "raw": "{{url}}/users/resend/{{email}}",
          "host": [
            "{{url}}"
          ],
          "path": [
            "users",
            "resend",
            "{{email}}"
          ]
        }
      },
      "response": []
    },
    {
      "name": "send verification phone code",
      "event": [],
      "request": {
        "method": "GET",
        "description": "Endpoint to send verification phone code",
        "header": [],
        "body": {},
        "url": {
          "raw": "{{url}}/users/sendVerification/{{phone}}",
          "host": [
            "{{url}}"
          ],
          "path": [
            "users",
            "sendVerification",
            "{{phone}}"
          ]
        }
      },
      "response": []
    },
    {
      "name": "validatePhone using phonecode",
      "request": {
        "method": "POST",
        "description": "Endpoint to validate entered phone code",
        "header": [],
        "body": {
          "mode": "formdata",
          "formdata": [
            {
              "key": "phoneCode",
              "value": "1234",
              "description": "",
              "type": "text"
            }
          ]
        },
        "url": {
          "raw": "{{url}}/users/validatePhone/{{verifyPhoneToken}}",
          "host": [
            "{{url}}"
          ],
          "path": [
            "users",
            "validatePhone",
            "{{verifyPhoneToken}}"
          ]
        }
      },
      "response": []
    },
    {
      "name": "Forgot Password Change",
      "request": {
        "method": "POST",
        "header": [],
        "body": {
          "mode": "formdata",
          "formdata": [
            {
              "key": "password",
              "value": "{{password}}",
              "description": "",
              "type": "text"
            }
          ]
        },
        "url": {
          "raw": "{{url}}/users/changepasswordforgot/{{forgotToken}}",
          "host": [
            "{{url}}"
          ],
          "path": [
            "users",
            "changepasswordforgot",
            "{{forgotToken}}"
          ]
        },
        "description": "Endpoint to change the user password from the forgot password functionality"
      },
      "response": []
    },
    {
      "name": "Get Users Restricted",
      "request": {
        "method": "GET",
        "header": [
          {
            "key": "Authorization",
            "value": "Bearer {{token}}"
          }
        ],
        "description": "Endpoint to get all the users with restricted info (as example)",
        "header": [],
        "body": {},
        "url": {
          "raw": "{{url}}/users?restricted=true",
          "host": [
            "{{url}}"
          ],
          "path": [
            "users?restricted=true"
          ]
        }
      },
      "response": []
    },
    {
      "name": "Check Phone and Email",
      "request": {
        "method": "GET",
        "description": "Endpoint to check if email and phone already exists",
        "body": {},
        "url": {
          "raw": "{{url}}/users/check?email={{email}}&phone={{phone}}",
          "host": [
            "{{url}}"
          ],
          "path": [
            "users",
            "check?email={{email}}&phone={{phone}}"
          ]
        }
      },
      "response": []
    },
    {
      "name": "Cancel Ride",
      "request": {
        "method": "POST",
        "description": "Endpoint to cancel a ride",
        "header": [
          {
            "key": "Authorization",
            "value": "Bearer {{token}}"
          },
          {
            "key": "Content-Type",
            "value": "application/json"
          }
        ],
        "body": {
          "mode": "formdata",
          "formdata": [
            {
              "key": "rideId",
              "value": "{{rideId}}",
              "description": "",
              "type": "text"
            }
          ]
        },
        "url": {
          "raw": "{{url}}/users/me/rides/cancel",
          "host": [
            "{{url}}"
          ],
          "path": [
            "users",
            "me",
            "rides",
            "cancel"
          ]
        }
      },
      "response": []
    },
    {
      "name": "Rate Ride",
      "request": {
        "method": "POST",
        "description": "Endpoint to rate a ride",
        "header": [],
        "body": {
          "mode": "formdata",
          "formdata": [
            {
              "key": "rideId",
              "value": "{{rideId}}",
              "description": "",
              "type": "text"
            },
            {
              "key": "rate",
              "value": "{{rate}}",
              "description": "",
              "type": "text"
            }
          ]
        },
        "url": {
          "raw": "{{url}}/users/me/rides/rate",
          "host": [
            "{{url}}"
          ],
          "path": [
            "users",
            "me",
            "rides",
            "rate"
          ]
        }
      },
      "response": []
    },
    {
      "name": "Add credit card",
      "event": [
        {
          "listen": "prerequest",
          "script": {
            "id": "cd7ae30e-7761-4c5c-b2b0-7a1f685a0cd1",
            "type": "text/javascript",
            "exec": [
              "let creditCard = {",
              "};",
              "",
              "var utils = eval(pm.globals.get('loadUtils'));",
              "utils.appendObject(creditCard, \"creditCardInfo\", \"creditCardInfo\");",
              "pm.environment.set('creditCard', JSON.stringify(creditCard.creditCardInfo));"
            ]
          }
        },
        {
          "listen": "test",
          "script": {
            "type": "text/javascript",
            "exec": [
              "var jsonData = JSON.parse(responseBody);",
              "postman.setEnvironmentVariable(\"creditCardId\", jsonData.response.id);"
            ]
          }
        }
      ],
      "request": {
        "method": "POST",
        "description": "Endpoint to add credit card",
        "header": [
          {
            "key": "Content-Type",
            "value": "application/json"
          },
          {
            "key": "Authorization",
            "value": "Bearer {{token}}"
          }
        ],
        "body": {
          "mode": "raw",
          "raw": "{{creditCard}}"
        },
        "url": {
          "raw": "{{url}}/users/cards",
          "host": [
            "{{url}}"
          ],
          "path": [
            "users",
            "cards"
          ]
        }
      },
      "response": []
    },
    {
      "name": "Remove credit card",
      "event": [],
      "request": {
        "method": "DELETE",
        "description": "Endpoint to delete credit card",
        "header": [
          {
            "key": "Content-Type",
            "value": "application/json"
          },
          {
            "key": "Authorization",
            "value": "Bearer {{token}}"
          }
        ],
        "body": {},
        "url": {
          "raw": "{{url}}/users/cards/{{creditCardId}}",
          "host": [
            "{{url}}"
          ],
          "path": [
            "users",
            "cards",
            "{{creditCardId}}"
          ]
        }
      },
      "response": []
    }
  ]
}
