{
  "id": "ae1458a8",
  "name": "All_Truck_production_Environment",
  "values": [
    {
      "enabled": true,
      "key": "url",
      "value": "https://api.alltruckcr.com/1.0.0",
      "type": "text"
    },
    {
      "enabled": true,
      "key": "templateName",
      "value": "newReceiptEmail",
      "type": "text"
    },
    {
      "enabled": true,
      "key": "htmlPart",
      "type": "text",
      "value": "<html>Example</html>"
    },
    {
      "enabled": true,
      "key": "subjectPart",
      "value": "Your trip",
      "type": "text"
    },
    {
      "enabled": true,
      "key": "templateListMax",
      "value": "10",
      "type": "text"
    },
    {
      "enabled": true,
      "key": "country",
      "value": "CRI",
      "type": "text"
    },
    {
      "enabled": true,
      "key": "region",
      "value": "CRI",
      "type": "text"
    },
    {
      "enabled": true,
      "key": "language",
      "value": "EN",
      "type": "text"
    },
    {
      "enabled": true,
      "key": "oneSignal",
      "value": "https://onesignal.com/api/v1/",
      "type": "text"
    },
    {
      "enabled": true,
      "key": "oneSignalAppId",
      "value": "42e8f92f-d463-4bfc-8b78-4ba172506920",
      "type": "text"
    },
    {
      "enabled": true,
      "key": "oneSignalContents",
      "value": "{\"en\": \"English Message\"}",
      "type": "text"
    },
    {
      "enabled": true,
      "key": "oneSignalRestKey",
      "value": "NDRkZDkwMjQtMTM4ZC00ZjUzLTgyNTctNDYxOWE2YjYzOWE0",
      "type": "text"
    },
    {
      "enabled": true,
      "key": "oneSignalFiltersTag",
      "value": "[{\"field\": \"tag\", \"key\": \"user_id\", \"relation\" : \"=\", \"value\": \"\"}]",
      "type": "text"
    },
    {
      "enabled": true,
      "key": "oneSignalSegments",
      "value": "[\"All\"]",
      "type": "text"
    },
    {
      "enabled": true,
      "key": "codeQuantity",
      "value": "1",
      "type": "text"
    },
    {
      "enabled": true,
      "key": "codeId",
      "value": "5a3952ba0749a35ce8894e6d",
      "type": "text"
    },
    {
      "enabled": true,
      "key": "messageId",
      "value": "5a397f790749a35ce8894e78",
      "type": "text"
    },
    {
      "enabled": true,
      "key": "token",
      "value": "eyJ0eXAiOiJKV1QiLCJhbGciOiJIUzI1NiJ9.eyJ1c2VySWQiOiI1YTU2YjIyMWQ0NjJkMDYyM2RiYjA4MmEiLCJtYWlsIjoibWFybG9ucm9qYXN2QGdtYWlsLmNvbSIsImlhdCI6MTUxNjA1MTEzNiwiZXhwIjoxNTE2MDUxMjU2fQ.ObtJYU1l0EhxOjS129pOYJyEnotcew5bPOm7LWFyje0",
      "type": "text"
    },
    {
      "enabled": true,
      "key": "refresh",
      "value": "eyJ0eXAiOiJKV1QiLCJhbGciOiJIUzI1NiJ9.eyJ1c2VySWQiOiI1YTU2YjIyMWQ0NjJkMDYyM2RiYjA4MmEiLCJtYWlsIjoibWFybG9ucm9qYXN2QGdtYWlsLmNvbSIsInR5cGUiOiJyZWZyZXNoIiwiaWF0IjoxNTE2MDUxMTM2LCJleHAiOjE1MTYwNTE3MzZ9.XxNSnIuJiTnaZ-j4LDIVIK5d41FiDZpZ2E0ucsoQv3k",
      "type": "text"
    },
    {
      "enabled": true,
      "key": "verifyToken",
      "value": "UGW5rGJHDeOWRbNE5UdBW",
      "type": "text"
    },
    {
      "enabled": true,
      "key": "forgotToken",
      "value": "UGW5rGJHDeOWRbNE5UdBW",
      "type": "text"
    },
    {
      "enabled": true,
      "key": "messageQuery",
      "value": "message=https://www.youtube.com/watch?v=dQw4w9WgXcQ&dateCreated=2017-11-30T03:02:23.213Z",
      "type": "text"
    },
    {
      "enabled": true,
      "key": "coordinates",
      "value": "latitude=30.653429&longitude=-95.761290&units=miles",
      "type": "text"
    },
    {
      "enabled": true,
      "key": "recycleQuery",
      "value": "address=2121 N Collins St, Arlington, TX 76011",
      "type": "text"
    },
    {
      "enabled": true,
      "key": "recycleId",
      "value": "5a6a45dafc0e802b83756fdf",
      "type": "text"
    },
    {
      "enabled": true,
      "key": "recycleLatitude",
      "value": "33.893322",
      "type": "text"
    },
    {
      "enabled": true,
      "key": "recycleLongitude",
      "value": "-96.2400442",
      "type": "text"
    },
    {
      "enabled": true,
      "key": "recycleAddress",
      "value": "Walmart LA",
      "type": "text"
    },
    {
      "enabled": true,
      "key": "queryDates",
      "value": "startDate=2017-12-14T03:50:58.519Z&endDate=2017-12-15T12:50:58.519Z",
      "type": "text"
    },
    {
      "enabled": true,
      "key": "queryUserId",
      "value": "userId=5a2870a60601ac0e8ba590c3",
      "type": "text"
    },
    {
      "enabled": true,
      "key": "deviceId",
      "value": "8cbb0e7d-ce53-40e6-8bcf-f138b1012c4f",
      "type": "text"
    },
    {
      "enabled": true,
      "key": "restrictedEndpoint",
      "value": "restricted=true",
      "type": "text"
    },
    {
      "enabled": true,
      "key": "firstName",
      "value": "Luis",
      "type": "text"
    },
    {
      "enabled": true,
      "key": "lastName",
      "value": "Padilla",
      "type": "text"
    },
    {
      "enabled": true,
      "key": "email",
      "value": "luis.padilla@dnamicworld.com",
      "type": "text"
    },
    {
      "enabled": true,
      "key": "phone",
      "value": "+50685736264",
      "type": "text"
    },
    {
      "enabled": true,
      "key": "others[country]",
      "value": "CRI",
      "type": "text"
    },
    {
      "enabled": true,
      "key": "password",
      "value": "dnamic123",
      "type": "text"
    },
    {
      "enabled": true,
      "key": "facebookId",
      "value": "10153287578873772",
      "type": "text"
    },
    {
      "enabled": true,
      "key": "others[gender]",
      "value": "Male",
      "type": "text"
    },
    {
      "enabled": true,
      "key": "others[birthday]",
      "value": "12/11/92",
      "type": "text"
    },
    {
      "enabled": true,
      "key": "facebookToken",
      "value": "EAAXIThixPvEBAF2AuZANy5lrsuPW8xWikLLZAu1LJrYyiZCQu1D7hT3GZCMZAt5owD1F11Ez2WxndMgIZC35lUyP1sea5ZAkUEjeepJ71rw3DZA8tD3iNmAdrLCkowHZB95ZAWc9heFrhW4yn6qUxZCrlgZA4raNxwis8RwM9zQAdHVB4EQMQ57sYXGJbcZBW38QjVv0ZD",
      "type": "text"
    },
    {
      "enabled": true,
      "key": "newFirstName",
      "value": "Rafael",
      "type": "text"
    },
    {
      "enabled": true,
      "key": "userQuery",
      "value": "firstName=Rafael",
      "type": "text"
    },
    {
      "enabled": true,
      "key": "userId",
      "value": "5a7234f866cf1e5e7a304fbb",
      "type": "text"
    },
    {
      "enabled": true,
      "key": "role[active]",
      "value": "true",
      "type": "text"
    },
    {
      "enabled": true,
      "key": "role[key]",
      "value": "superAdmin",
      "type": "text"
    },
    {
      "enabled": true,
      "key": "rate",
      "value": "4.5",
      "type": "text"
    }
  ]
}